      _                                                                 _      _                    
 ___ | |__    ___  __      __  ___   __ _  ___   ___          __ _   __| |  __| |  ___   _ __   ___ 
/ __|| '_ \  / _ \ \ \ /\ / / / __| / _` |/ __| / _ \ _____  / _` | / _` | / _` | / _ \ | '_ \ / __|
\__ \| | | || (_) | \ V  V / | (__ | (_| |\__ \|  __/|_____|| (_| || (_| || (_| || (_) || | | |\__ \
|___/|_| |_| \___/   \_/\_/   \___| \__,_||___/ \___|        \__,_| \__,_| \__,_| \___/ |_| |_||___/
                                                                                                    
